School Analysis on Niche
…
Part 3 Text Mining

Finally, we know that there is more to colleges than just numbers. We used text mining techniques and sentiment analysis on student reviews to create our own ranking of the schools.

## Joining, by = "word"
## Joining, by = "word"

## Selecting by count

## # A tibble: 5,240 x 3
## # Groups:   id [100]
##    id              word        count
##    <chr>           <chr>       <int>
##  1 Amherst College amazing         7
##  2 Amherst College beautiful       6
##  3 Amherst College hard            6
##  4 Amherst College love            4
##  5 Amherst College top             4
##  6 Amherst College fantastic       3
##  7 Amherst College super           3
##  8 Amherst College wonderful       3
##  9 Amherst College competitive     2
## 10 Amherst College friendly        2
## # ... with 5,230 more rows
…
